verilog/rvb_shifter/testbench.vcd
$date
	Thu Sep 17 15:24:34 2020
$end
$version
	Icarus Verilog
$end
$timescale
	1s
$end
$scope module testbench $end
$var wire 1 ! din_valid $end
$var wire 1 " dout_ready $end
$var wire 64 # next_rs3 [63:0] $end
$var wire 64 $ next_rs2 [63:0] $end
$var wire 64 % next_rs1 [63:0] $end
$var wire 64 & next_rd [63:0] $end
$var wire 32 ' next_insn [31:0] $end
$var wire 32 ( next_index [31:0] $end
$var wire 1 ) dout_valid $end
$var wire 64 * dout_rd [63:0] $end
$var wire 1 + din_ready $end
$var reg 32 , check_insn [31:0] $end
$var reg 64 - check_rd [63:0] $end
$var reg 1 . clock $end
$var reg 1 / din_insn13 $end
$var reg 1 0 din_insn14 $end
$var reg 1 1 din_insn26 $end
$var reg 1 2 din_insn27 $end
$var reg 1 3 din_insn29 $end
$var reg 1 4 din_insn3 $end
$var reg 1 5 din_insn30 $end
$var reg 64 6 din_rs1 [63:0] $end
$var reg 64 7 din_rs2 [63:0] $end
$var reg 64 8 din_rs3 [63:0] $end
$var reg 1 9 reset $end
$var integer 32 : index [31:0] $end
$scope module uut $end
$var wire 64 ; B [63:0] $end
$var wire 1 < bfpmode $end
$var wire 1 . clock $end
$var wire 1 / din_insn13 $end
$var wire 1 0 din_insn14 $end
$var wire 1 1 din_insn26 $end
$var wire 1 2 din_insn27 $end
$var wire 1 3 din_insn29 $end
$var wire 1 4 din_insn3 $end
$var wire 1 5 din_insn30 $end
$var wire 1 + din_ready $end
$var wire 64 = din_rs1 [63:0] $end
$var wire 64 > din_rs2 [63:0] $end
$var wire 64 ? din_rs3 [63:0] $end
$var wire 1 ! din_valid $end
$var wire 1 " dout_ready $end
$var wire 1 ) dout_valid $end
$var wire 1 9 reset $end
$var wire 1 @ sbmode $end
$var wire 1 A slliumode $end
$var wire 1 B wmode $end
$var wire 64 C dout_rd [63:0] $end
$var wire 6 D bfp_off [5:0] $end
$var wire 32 E bfp_mask [31:0] $end
$var wire 6 F bfp_len [5:0] $end
$var wire 16 G bfp_config_lo [15:0] $end
$var wire 16 H bfp_config_hi [15:0] $end
$var wire 16 I bfp_config [15:0] $end
$var wire 64 J X [63:0] $end
$var wire 64 K A [63:0] $end
$var reg 64 L Y [63:0] $end
$var reg 64 M aa [63:0] $end
$var reg 64 N bb [63:0] $end
$var reg 7 O shamt [6:0] $end
$scope module datapath $end
$var wire 64 P A [63:0] $end
$var wire 64 Q B [63:0] $end
$var wire 7 R shamt [6:0] $end
$var wire 1 B wmode $end
$var wire 64 S X [63:0] $end
$var reg 128 T tmp [127:0] $end
$upscope $end
$upscope $end
$upscope $end
$enddefinitions $end
#0
$dumpvars
bx T
bx S
bx R
bx Q
bx P
bx O
bx N
bx M
bx L
bx K
bx J
bx I
bx H
bx G
bx F
bx E
bx D
bx C
xB
xA
0@
bx ?
bx >
bx =
0<
bx ;
b0 :
19
bx 8
bx 7
bx 6
x5
x4
x3
x2
x1
x0
x/
x.
bx -
bx ,
1+
bx *
1)
b0 (
b101000000111011 '
b1111110011011101100001111 &
b1101101001001101011100000100110011111100110111011000011110101110 %
b1100100100100100010101101111101000111100100111011101011111100111 $
b100101001001111111011100011011101000110101000111110101110010011 #
1"
1!
$end
#5
0.
#10
b1111110011011101100001111 *
b1111110011011101100001111 C
b11111111111111111111000000000000 E
b1100 F
b11101 D
b101110000000000000000000000000000000001111110011011101100001111 L
b11110010011101 I
1B
b101110000000000000000000000000000000001111110011011101100001111 J
b101110000000000000000000000000000000001111110011011101100001111 S
b100000000000000101000000110011 '
b1111100010001011011101111111101101011000111000110010010011000 %
b1011001101101111111001011111110010110101100110100000000000010 $
b10100011011100100101000011101111110001001011101000101111010110 #
b1100011111000100010110111011111111011010110001110001100100100110 &
b1011100000000000000000000000000000000011111100110111011000011110101110000000000000000000000000000000001111110011011101100001111 T
b101011011111010 G
b1100100100100100 H
b1 (
0A
b0 N
b0 Q
b1101101001001101011100000100110011111100110111011000011110101110 M
b1101101001001101011100000100110011111100110111011000011110101110 P
b1111001 O
b1111001 R
b1101101001001101011100000100110011111100110111011000011110101110 K
09
05
03
02
01
10
0/
14
b1111110011011101100001111 -
b101000000111011 ,
b100101001001111111011100011011101000110101000111110101110010011 ;
b100101001001111111011100011011101000110101000111110101110010011 8
b100101001001111111011100011011101000110101000111110101110010011 ?
b1100100100100100010101101111101000111100100111011101011111100111 7
b1100100100100100010101101111101000111100100111011101011111100111 >
b1101101001001101011100000100110011111100110111011000011110101110 6
b1101101001001101011100000100110011111100110111011000011110101110 =
1.
#15
0.
#20
b1100011111000100010110111011111111011010110001110001100100100110 L
b1100011111000100010110111011111111011010110001110001100100100110 *
b1100011111000100010110111011111111011010110001110001100100100110 C
b11110000000000000000000000000000 E
b11100 F
b111111 D
b1100011111000100010110111011111111011010110001110001100100100110 J
b1100011111000100010110111011111111011010110001110001100100100110 S
0B
b111111111111111111111111111111111111111111111111111111111111111100011111000100010110111011111111011010110001110001100100100110 T
b1111110010111111 G
b1011001101101 H
b1111110010111111 I
b100000000000001000000110011 '
b101110000000101000100000101000100111111111001101010010110010110 %
b1000000111010110000101111011110000100111000101110111001110101100 $
b1110010100110000011101001011110110011111010100111000110010101110 #
b110101001011001011011100101001100000111010010111101100111110101 &
b1111111111111111111111111111111111111111111111111111111111111111 N
b1111111111111111111111111111111111111111111111111111111111111111 Q
b1111100010001011011101111111101101011000111000110010010011000 M
b1111100010001011011101111111101101011000111000110010010011000 P
b1111110 O
b1111110 R
b1111100010001011011101111111101101011000111000110010010011000 K
b10 (
13
04
b1100011111000100010110111011111111011010110001110001100100100110 -
b100000000000000101000000110011 ,
b10100011011100100101000011101111110001001011101000101111010110 ;
b10100011011100100101000011101111110001001011101000101111010110 8
b10100011011100100101000011101111110001001011101000101111010110 ?
b1011001101101111111001011111110010110101100110100000000000010 7
b1011001101101111111001011111110010110101100110100000000000010 >
b1111100010001011011101111111101101011000111000110010010011000 6
b1111100010001011011101111111101101011000111000110010010011000 =
b1 :
1.
#25
0.
#30
b11111111111111111111111111111110 E
b1 F
b10110 D
b110101001011001011011100101001100000111010010111101100111110101 *
b110101001011001011011100101001100000111010010111101100111110101 C
b110101001011001011011100101001100000111010010111101100111110101 L
b1000000111010110 I
b110101001011001011011100101001100000111010010111101100111110101 J
b110101001011001011011100101001100000111010010111101100111110101 S
b111000110010101110010111000000010100010000010100010011111111100110101001011001011011100101001100000111010010111101100111110101 T
b1011110111100 G
b1000000111010110 H
b1000000000000000101000000110011 '
b1101011111010001010001000010101100010101110111110010101110100001 %
b1110010111000101000011010111010011001001000111100100011101100001 $
b11111110111110100101001001100001001000100100011010001111001110 #
b1111111111111111111111111111111111101011111010001010001000010101 &
b1110010100110000011101001011110110011111010100111000110010101110 N
b1110010100110000011101001011110110011111010100111000110010101110 Q
b101110000000101000100000101000100111111111001101010010110010110 M
b101110000000101000100000101000100111111111001101010010110010110 P
b101100 O
b101100 R
b101110000000101000100000101000100111111111001101010010110010110 K
b11 (
03
11
00
b110101001011001011011100101001100000111010010111101100111110101 -
b100000000000001000000110011 ,
b1110010100110000011101001011110110011111010100111000110010101110 ;
b1110010100110000011101001011110110011111010100111000110010101110 8
b1110010100110000011101001011110110011111010100111000110010101110 ?
b1000000111010110000101111011110000100111000101110111001110101100 7
b1000000111010110000101111011110000100111000101110111001110101100 >
b101110000000101000100000101000100111111111001101010010110010110 6
b101110000000101000100000101000100111111111001101010010110010110 =
b10 :
1.
#35
0.
#40
b11111111111111111110000000000000 E
b1101 F
b110100 D
b1111111111111111111111111111111111101011111010001010001000010101 *
b1111111111111111111111111111111111101011111010001010001000010101 C
b1111111111111111111111111111111111101011111010001010001000010101 L
b110101110100 I
b1111111111111111111111111111111111101011111010001010001000010101 J
b1111111111111111111111111111111111101011111010001010001000010101 S
b10001010111011111001010111010000111111111111111111111111111111111111111111111111111111111111111111101011111010001010001000010101 T
b110101110100 G
b1110010111000101 H
b101100100000011100000010010010100001101110101010010001110110 %
b101001110110111110000110110110011010000100110001100011010100001 $
b1100000111011100110100100110011100101001100100111110101001001111 #
b101100100000011100000010010 &
b1111111111111111111111111111111111111111111111111111111111111111 N
b1111111111111111111111111111111111111111111111111111111111111111 Q
b1101011111010001010001000010101100010101110111110010101110100001 M
b1101011111010001010001000010101100010101110111110010101110100001 P
b1011111 O
b1011111 R
b1101011111010001010001000010101100010101110111110010101110100001 K
b100 (
15
01
10
b1111111111111111111111111111111111101011111010001010001000010101 -
b1000000000000000101000000110011 ,
b11111110111110100101001001100001001000100100011010001111001110 ;
b11111110111110100101001001100001001000100100011010001111001110 8
b11111110111110100101001001100001001000100100011010001111001110 ?
b1110010111000101000011010111010011001001000111100100011101100001 7
b1110010111000101000011010111010011001001000111100100011101100001 >
b1101011111010001010001000010101100010101110111110010101110100001 6
b1101011111010001010001000010101100010101110111110010101110100001 =
b11 :
1.
#45
0.
#50
b11111111111111111111111111111000 E
b11 F
b101100 D
b101100100000011100000010010 *
b101100100000011100000010010 C
b101100100000011100000010010 L
b1100001101101100 I
b101100100000011100000010010 J
b101100100000011100000010010 S
b1010000110111010101001000111011000000000000000000000000000000000000000000000000000000000000000000000101100100000011100000010010 T
b1100001101101100 G
b101001110110111 H
b101000000110011 '
b110100101011110010111001000101111111011001000101101000001101100 %
b1000010011001111000111111001101110000000101101011100110010100101 $
b1110100001111011101101001010110001000011010000100000000011011 #
b11010010101111001011100100 &
b0 N
b0 Q
b101100100000011100000010010010100001101110101010010001110110 M
b101100100000011100000010010010100001101110101010010001110110 P
b1011111 O
b1011111 R
b101100100000011100000010010010100001101110101010010001110110 K
b101 (
b101100100000011100000010010 -
b1100000111011100110100100110011100101001100100111110101001001111 ;
b1100000111011100110100100110011100101001100100111110101001001111 8
b1100000111011100110100100110011100101001100100111110101001001111 ?
b101001110110111110000110110110011010000100110001100011010100001 7
b101001110110111110000110110110011010000100110001100011010100001 >
b101100100000011100000010010010100001101110101010010001110110 6
b101100100000011100000010010010100001101110101010010001110110 =
b100 :
1.
#55
0.
#60
b11111111111111111111111111110000 E
b100 F
b1111 D
b11010010101111001011100100 *
b11010010101111001011100100 C
b11010010101111001011100100 L
b1000010011001111 I
b11010010101111001011100100 J
b11010010101111001011100100 S
b1011111110110010001011010000011011000000000000000000000000000000000000000000000000000000000000000000011010010101111001011100100 T
b1111110011011 G
b1000010011001111 H
b100000000000000001000000110011 '
b101011011101000001100110101001101000000110011010001100101010010 %
b1001111100000010001111001000000111001010110111000110100111001000 $
b1011101101001100000011010111101001100110100010010101000101101011 #
b1110100000110011010100110100000011001101000110010101001011111111 &
b0 N
b0 Q
b110100101011110010111001000101111111011001000101101000001101100 M
b110100101011110010111001000101111111011001000101101000001101100 P
b1011011 O
b1011011 R
b110100101011110010111001000101111111011001000101101000001101100 K
b110 (
05
b11010010101111001011100100 -
b101000000110011 ,
b1110100001111011101101001010110001000011010000100000000011011 ;
b1110100001111011101101001010110001000011010000100000000011011 8
b1110100001111011101101001010110001000011010000100000000011011 ?
b1000010011001111000111111001101110000000101101011100110010100101 7
b1000010011001111000111111001101110000000101101011100110010100101 >
b110100101011110010111001000101111111011001000101101000001101100 6
b110100101011110010111001000101111111011001000101101000001101100 =
b101 :
1.
#65
0.
#70
b10000000000000000000000000000000 E
b11111 F
b10 D
b1110100000110011010100110100000011001101000110010101001011111111 *
b1110100000110011010100110100000011001101000110010101001011111111 C
b1110100000110011010100110100000011001101000110010101001011111111 L
b1001111100000010 I
b1110100000110011010100110100000011001101000110010101001011111111 J
b1110100000110011010100110100000011001101000110010101001011111111 S
b11111111111111111111111111111111111111111111111111111111010101101110100000110011010100110100000011001101000110010101001011111111 T
b11110010000001 G
b1001111100000010 H
b100000000000000001000000111011 '
b1110000001111100110011101101010001001101011010000011001011100111 %
b10110110101010000110001101110110111000100000000111111100100101 $
b101101111110100000101100111011111111110011010011100011110101010 #
b1111111111111111111111111111111110101101000001100101110011111111 &
b1111111111111111111111111111111111111111111111111111111111111111 N
b1111111111111111111111111111111111111111111111111111111111111111 Q
b101011011101000001100110101001101000000110011010001100101010010 M
b101011011101000001100110101001101000000110011010001100101010010 P
b1000 O
b1000 R
b101011011101000001100110101001101000000110011010001100101010010 K
b111 (
13
00
b1110100000110011010100110100000011001101000110010101001011111111 -
b100000000000000001000000110011 ,
b1011101101001100000011010111101001100110100010010101000101101011 ;
b1011101101001100000011010111101001100110100010010101000101101011 8
b1011101101001100000011010111101001100110100010010101000101101011 ?
b1001111100000010001111001000000111001010110111000110100111001000 7
b1001111100000010001111001000000111001010110111000110100111001000 >
b101011011101000001100110101001101000000110011010001100101010010 6
b101011011101000001100110101001101000000110011010001100101010010 =
b110 :
1.
#75
0.
#80
b0 D
b1111111111111111111111111110100110101101000001100101110011111111 L
b1111111111111111111111111111111110101101000001100101110011111111 *
b1111111111111111111111111111111110101101000001100101110011111111 C
b1011100010000000 I
b11111111111111111111111100000000 E
b1000 F
b1111111111111111111111111110100110101101000001100101110011111111 J
b1111111111111111111111111110100110101101000001100101110011111111 S
1B
b11111111111111111111111111101001101011010000011001011100111111111111111111111111111111111110100110101101000001100101110011111111 T
b1100011011101 G
b10110110101010 H
b1000000111011 '
b1000010100101010100010000010011101010001101000000010010000110 %
b11111000111010110010110101010010001101010111110110011101111100 $
b101011110101010001000110010010001101010000110111111001010100011 #
b1100000000000000000000000000000 &
b1111111111111111111111111111111111111111111111111111111111111111 N
b1111111111111111111111111111111111111111111111111111111111111111 Q
b1110000001111100110011101101010001001101011010000011001011100111 M
b1110000001111100110011101101010001001101011010000011001011100111 P
b101 O
b101 R
b1110000001111100110011101101010001001101011010000011001011100111 K
b1000 (
14
b1111111111111111111111111111111110101101000001100101110011111111 -
b100000000000000001000000111011 ,
b101101111110100000101100111011111111110011010011100011110101010 ;
b101101111110100000101100111011111111110011010011100011110101010 8
b101101111110100000101100111011111111110011010011100011110101010 ?
b10110110101010000110001101110110111000100000000111111100100101 7
b10110110101010000110001101110110111000100000000111111100100101 >
b1110000001111100110011101101010001001101011010000011001011100111 6
b1110000001111100110011101101010001001101011010000011001011100111 =
b111 :
1.
#85
0.
#90
b1100000000000000000000000000000 *
b1100000000000000000000000000000 C
b111010100011010000000100100001100000000000000000000000000000 L
b11111111111111111110000000000000 E
b1101 F
b11111 D
b111010100011010000000100100001100000000000000000000000000000 J
b111010100011010000000100100001100000000000000000000000000000 S
b1110101000110100000001001000011000000000000000000000000000000000111010100011010000000100100001100000000000000000000000000000 T
b1100101101010100 G
b11111000111010 H
b1000110101011111 I
b100000000000101000000110011 '
b1001101100111101110001010001101001010000010011000000111001110101 %
b1110000111011010000100000011010011011000010001001111101010011010 $
b1010010111100100101110110011000101100010110100101100110001110000 #
b1011010010110011000111000010011011001111011100010100011010010100 &
b0 N
b0 Q
b1000010100101010100010000010011101010001101000000010010000110 M
b1000010100101010100010000010011101010001101000000010010000110 P
b11100 O
b11100 R
b1000010100101010100010000010011101010001101000000010010000110 K
b1001 (
03
b1100000000000000000000000000000 -
b1000000111011 ,
b101011110101010001000110010010001101010000110111111001010100011 ;
b101011110101010001000110010010001101010000110111111001010100011 8
b101011110101010001000110010010001101010000110111111001010100011 ?
b11111000111010110010110101010010001101010111110110011101111100 7
b11111000111010110010110101010010001101010111110110011101111100 >
b1000010100101010100010000010011101010001101000000010010000110 6
b1000010100101010100010000010011101010001101000000010010000110 =
b1000 :
1.
#95
0.
#100
b1011010010110011000111000010011011001111011100010100011010010100 L
b1011010010110011000111000010011011001111011100010100011010010100 *
b1011010010110011000111000010011011001111011100010100011010010100 C
b11111111111111110000000000000000 E
b10000 F
b110100 D
b1011010010110011000111000010011011001111011100010100011010010100 J
b1011010010110011000111000010011011001111011100010100011010010100 S
0B
b10011000000111001110101101001011110010010111011001100010110001011010010110011000111000010011011001111011100010100011010010100 T
b1000000110100 G
b1110000111011010 H
b1000000110100 I
b100000000000000101000000110011 '
b11110100101000111101110101110001011011101011111011000100011101 %
b1110000000100101111001011101111111001111000001011011100110010 $
b111111010110100101101001000101111101100111111101101001110011 #
b1111111111111111111111111111111111111111111111111100111101001010 &
b1010010111100100101110110011000101100010110100101100110001110000 N
b1010010111100100101110110011000101100010110100101100110001110000 Q
b1001101100111101110001010001101001010000010011000000111001110101 M
b1001101100111101110001010001101001010000010011000000111001110101 P
b1100110 O
b1100110 R
b1001101100111101110001010001101001010000010011000000111001110101 K
b1010 (
11
10
04
b1011010010110011000111000010011011001111011100010100011010010100 -
b100000000000101000000110011 ,
b1010010111100100101110110011000101100010110100101100110001110000 ;
b1010010111100100101110110011000101100010110100101100110001110000 8
b1010010111100100101110110011000101100010110100101100110001110000 ?
b1110000111011010000100000011010011011000010001001111101010011010 7
b1110000111011010000100000011010011011000010001001111101010011010 >
b1001101100111101110001010001101001010000010011000000111001110101 6
b1001101100111101110001010001101001010000010011000000111001110101 =
b1001 :
1.
#105
0.
#110
b11110000000000000000000000000000 E
b11100 F
b111011 D
b1111111111111111111111111111111111111111111111111100111101001010 *
b1111111111111111111111111111111111111111111111111100111101001010 C
b1111111111111111111111111111111111111111111111111100111101001010 L
b1011110010111011 I
b1111111111111111111111111111111111111111111111111100111101001010 J
b1111111111111111111111111111111111111111111111111100111101001010 S
b111101110101110001011011101011111011000100011101111111111111111111111111111111111111111111111111111111111111111100111101001010 T
b1011110010111011 G
b1110000000100 H
b100000000000001000000110011 '
b111001110011110110011001100101111101010111110001100000011001000 %
b1010111011010110100011101011100010011111001101111001011000111000 $
b1101001111100100101110001100000011011011011011111100110101111110 #
b1100100011010011111001001011100011000000110110110110111111001101 &
b1111111111111111111111111111111111111111111111111111111111111111 N
b1111111111111111111111111111111111111111111111111111111111111111 Q
b11110100101000111101110101110001011011101011111011000100011101 M
b11110100101000111101110101110001011011101011111011000100011101 P
b1001110 O
b1001110 R
b11110100101000111101110101110001011011101011111011000100011101 K
b1011 (
13
01
b1111111111111111111111111111111111111111111111111100111101001010 -
b100000000000000101000000110011 ,
b111111010110100101101001000101111101100111111101101001110011 ;
b111111010110100101101001000101111101100111111101101001110011 8
b111111010110100101101001000101111101100111111101101001110011 ?
b1110000000100101111001011101111111001111000001011011100110010 7
b1110000000100101111001011101111111001111000001011011100110010 >
b11110100101000111101110101110001011011101011111011000100011101 6
b11110100101000111101110101110001011011101011111011000100011101 =
b1010 :
1.
#115
0.
#120
b11111111111111111100000000000000 E
b1110 F
b10110 D
b1100100011010011111001001011100011000000110110110110111111001101 *
b1100100011010011111001001011100011000000110110110110111111001101 C
b1100100011010011111001001011100011000000110110110110111111001101 L
b1010111011010110 I
b1100100011010011111001001011100011000000110110110110111111001101 J
b1100100011010011111001001011100011000000110110110110111111001101 S
b1111110011100111001111011001100110010111110101011111000110000001100100011010011111001001011100011000000110110110110111111001101 T
b1000111010111000 G
b1010111011010110 H
b100000000000000001000000111011 '
b10111000110011001100110000001001000010001110011011001001001011 %
b1111101001101101111001100001001110010011010110110000110111000100 $
b1010111010011101011000100001010101011001001001111010110000111010 #
b100011100110110010010010111111 &
b1101001111100100101110001100000011011011011011111100110101111110 N
b1101001111100100101110001100000011011011011011111100110101111110 Q
b111001110011110110011001100101111101010111110001100000011001000 M
b111001110011110110011001100101111101010111110001100000011001000 P
b111000 O
b111000 R
b111001110011110110011001100101111101010111110001100000011001000 K
b1100 (
03
11
00
b1100100011010011111001001011100011000000110110110110111111001101 -
b100000000000001000000110011 ,
b1101001111100100101110001100000011011011011011111100110101111110 ;
b1101001111100100101110001100000011011011011011111100110101111110 8
b1101001111100100101110001100000011011011011011111100110101111110 ?
b1010111011010110100011101011100010011111001101111001011000111000 7
b1010111011010110100011101011100010011111001101111001011000111000 >
b111001110011110110011001100101111101010111110001100000011001000 6
b111001110011110110011001100101111101010111110001100000011001000 =
b1011 :
1.
#125
0.
#130
b11111111111111111111111111111000 E
b11 F
b11011 D
b1111111111111111111111111111010000100011100110110010010010111111 L
b100011100110110010010010111111 *
b100011100110110010010010111111 C
b1001001101011011 I
b1111111111111111111111111111010000100011100110110010010010111111 J
b1111111111111111111111111111010000100011100110110010010010111111 S
1B
b11111111111111111111111111110100001000111001101100100100101111111111111111111111111111111111010000100011100110110010010010111111 T
b1110011000010011 G
b1111101001101101 H
b1100000000000000001000000111011 '
b1000101011110011010001111110101010100011110000001010101101001101 %
b110001110000011010100110011100100110101011010101000111010101011 $
b1111001101000100010000100111010000011010010101010000000111010001 #
b101010110100110110100011110 &
b1111111111111111111111111111111111111111111111111111111111111111 N
b1111111111111111111111111111111111111111111111111111111111111111 Q
b10111000110011001100110000001001000010001110011011001001001011 M
b10111000110011001100110000001001000010001110011011001001001011 P
b100 O
b100 R
b10111000110011001100110000001001000010001110011011001001001011 K
b1101 (
13
01
14
b100011100110110010010010111111 -
b100000000000000001000000111011 ,
b1010111010011101011000100001010101011001001001111010110000111010 ;
b1010111010011101011000100001010101011001001001111010110000111010 8
b1010111010011101011000100001010101011001001001111010110000111010 ?
b1111101001101101111001100001001110010011010110110000110111000100 7
b1111101001101101111001100001001110010011010110110000110111000100 >
b10111000110011001100110000001001000010001110011011001001001011 6
b10111000110011001100110000001001000010001110011011001001001011 =
b1100 :
1.
#135
0.
#140
b101010110100110110100011110 *
b101010110100110110100011110 C
b10101011010011011010001111000000101010110100110110100011110 L
b11111111111111111111111111100000 E
b101 F
b1010 D
b10101011010011011010001111000000101010110100110110100011110 J
b10101011010011011010001111000000101010110100110110100011110 S
b101010110100110110100011110000001010101101001101101000111100000010101011010011011010001111000000101010110100110110100011110 T
b101001100111001 G
b110001110000011 H
b11010101101010 I
b100000000000000101000000110011 '
b1011010111100011001101100011100110110111101010111000101011001011 %
b1100010100011101111111111001010000100111001001100001111011100 $
b1000111101110110111111111111001101000001100111100100000101010111 #
b1111111111111111111111111111101101011110001100110110001110011011 &
b1000101011110011010001111110101010100011110000001010101101001101 N
b1000101011110011010001111110101010100011110000001010101101001101 Q
b1000101011110011010001111110101010100011110000001010101101001101 M
b1000101011110011010001111110101010100011110000001010101101001101 P
b1011 O
b1011 R
b1000101011110011010001111110101010100011110000001010101101001101 K
b1110 (
15
b101010110100110110100011110 -
b1100000000000000001000000111011 ,
b1111001101000100010000100111010000011010010101010000000111010001 ;
b1111001101000100010000100111010000011010010101010000000111010001 8
b1111001101000100010000100111010000011010010101010000000111010001 ?
b110001110000011010100110011100100110101011010101000111010101011 7
b110001110000011010100110011100100110101011010101000111010101011 >
b1000101011110011010001111110101010100011110000001010101101001101 6
b1000101011110011010001111110101010100011110000001010101101001101 =
b1101 :
1.
#145
0.
#150
b1111111111111111111111111111101101011110001100110110001110011011 L
b1111111111111111111111111111101101011110001100110110001110011011 *
b1111111111111111111111111111101101011110001100110110001110011011 C
b10000000000000000000000000000000 E
b11111 F
b110010 D
b1111111111111111111111111111101101011110001100110110001110011011 J
b1111111111111111111111111111101101011110001100110110001110011011 S
0B
b1111010101110001010110010111111111111111111111111111111111111111111111111111111111111111111101101011110001100110110001110011011 T
b1011111111110010 G
b1100010100011 H
b1011111111110010 I
b1100000000000000101000000111011 '
b11000011100011001101111001011010010011100011101001110 %
b1000011110101111101011010101111000110010100011101101111111011100 $
b1100011111010000010001111010011000101011101110001110011010110100 #
b1111111111111111111111111111111110110100100111000111010011101100 &
b1111111111111111111111111111111111111111111111111111111111111111 N
b1111111111111111111111111111111111111111111111111111111111111111 Q
b1011010111100011001101100011100110110111101010111000101011001011 M
b1011010111100011001101100011100110110111101010111000101011001011 P
b1100100 O
b1100100 R
b1011010111100011001101100011100110110111101010111000101011001011 K
b1111 (
05
10
04
b1111111111111111111111111111101101011110001100110110001110011011 -
b100000000000000101000000110011 ,
b1000111101110110111111111111001101000001100111100100000101010111 ;
b1000111101110110111111111111001101000001100111100100000101010111 8
b1000111101110110111111111111001101000001100111100100000101010111 ?
b1100010100011101111111111001010000100111001001100001111011100 7
b1100010100011101111111111001010000100111001001100001111011100 >
b1011010111100011001101100011100110110111101010111000101011001011 6
b1011010111100011001101100011100110110111101010111000101011001011 =
b1110 :
1.
#155
0.
#160
b1011010010011100011101001110110010110100100111000111010011101100 L
b1111111111111111111111111111111110110100100111000111010011101100 *
b1111111111111111111111111111111110110100100111000111010011101100 C
b11001010001110 I
b11111111111111111111111111111100 E
b10 F
b1110 D
b1011010010011100011101001110110010110100100111000111010011101100 J
b1011010010011100011101001110110010110100100111000111010011101100 S
1B
b10110100100111000111010011101100101101001001110001110100111011001011010010011100011101001110110010110100100111000111010011101100 T
b1010110101011110 G
b1000011110101111 H
b1000000000000000101000000111011 '
b1100000010110100011100010100010110011101000000100011011101101011 %
b1010011000001000011010010001110011001110010111000010110110101001 $
b11011011001100001000111111110111100100110010001000111000100100 #
b1111111111111111111111111111111111111111110011101000000100011011 &
b11000011100011001101111001011010010011100011101001110 N
b11000011100011001101111001011010010011100011101001110 Q
b11000011100011001101111001011010010011100011101001110 M
b11000011100011001101111001011010010011100011101001110 P
b1100100 O
b1100100 R
b11000011100011001101111001011010010011100011101001110 K
b10000 (
15
14
b1111111111111111111111111111111110110100100111000111010011101100 -
b1100000000000000101000000111011 ,
b1100011111010000010001111010011000101011101110001110011010110100 ;
b1100011111010000010001111010011000101011101110001110011010110100 8
b1100011111010000010001111010011000101011101110001110011010110100 ?
b1000011110101111101011010101111000110010100011101101111111011100 7
b1000011110101111101011010101111000110010100011101101111111011100 >
b11000011100011001101111001011010010011100011101001110 6
b11000011100011001101111001011010010011100011101001110 =
b1111 :
1.
#165
0.
#170
b1111111111111111111111111111111111111111110011101000000100011011 *
b1111111111111111111111111111111111111111110011101000000100011011 C
b1011010111111111111111111111111111111111110011101000000100011011 L
b11111111111111111100000000000000 E
b1110 F
b11100 D
b1011010111111111111111111111111111111111110011101000000100011011 J
b1011010111111111111111111111111111111111110011101000000100011011 S
b10110101111111111111111111111111111111111100111010000001000110111011010111111111111111111111111111111111110011101000000100011011 T
b110100100011100 G
b1010011000001000 H
b1100111001011100 I
b100000000000000001000000111011 '
b1000101010111111000111000100111101001111111011111101001001010100 %
b100000100000110000100011011000011100111111011000101000000 $
b1000001101000010110110001111101111010011111001110100111001110101 #
b1001111111011111101001001010100 &
b1111111111111111111111111111111111111111111111111111111111111111 N
b1111111111111111111111111111111111111111111111111111111111111111 Q
b1100000010110100011100010100010110011101000000100011011101101011 M
b1100000010110100011100010100010110011101000000100011011101101011 P
b1110111 O
b1110111 R
b1100000010110100011100010100010110011101000000100011011101101011 K
b10001 (
03
b1111111111111111111111111111111111111111110011101000000100011011 -
b1000000000000000101000000111011 ,
b11011011001100001000111111110111100100110010001000111000100100 ;
b11011011001100001000111111110111100100110010001000111000100100 8
b11011011001100001000111111110111100100110010001000111000100100 ?
b1010011000001000011010010001110011001110010111000010110110101001 7
b1010011000001000011010010001110011001110010111000010110110101001 >
b1100000010110100011100010100010110011101000000100011011101101011 6
b1100000010110100011100010100010110011101000000100011011101101011 =
b10000 :
1.
#175
0.
#180
b1001111111011111101001001010100 *
b1001111111011111101001001010100 C
b1111111111111111111111111111111101001111111011111101001001010100 L
b11111111111111111111111111111000 E
b11 F
b11111 D
b1111111111111111111111111111111101001111111011111101001001010100 J
b1111111111111111111111111111111101001111111011111101001001010100 S
b11111111111111111111111111111111010011111110111111010010010101001111111111111111111111111111111101001111111011111101001001010100 T
b1100001000110 G
b100000100 H
b1100001110011111 I
b1100000000000000101000000110011 '
b1001100000000110111101111111000010011001111000100100010110001 %
b1101111101101110100100010010010010100100000010001110011110100001 $
b1010011101101111111000000011111100110110011011011001110011101011 #
b100110011110001001000101100010001001100000000110111101111111 &
b1111111111111111111111111111111111111111111111111111111111111111 N
b1111111111111111111111111111111111111111111111111111111111111111 Q
b1000101010111111000111000100111101001111111011111101001001010100 M
b1000101010111111000111000100111101001111111011111101001001010100 P
b0 O
b0 R
b1000101010111111000111000100111101001111111011111101001001010100 K
b10010 (
05
13
00
b1001111111011111101001001010100 -
b100000000000000001000000111011 ,
b1000001101000010110110001111101111010011111001110100111001110101 ;
b1000001101000010110110001111101111010011111001110100111001110101 8
b1000001101000010110110001111101111010011111001110100111001110101 ?
b100000100000110000100011011000011100111111011000101000000 7
b100000100000110000100011011000011100111111011000101000000 >
b1000101010111111000111000100111101001111111011111101001001010100 6
b1000101010111111000111000100111101001111111011111101001001010100 =
b10001 :
1.
#185
0.
