verilog/rvb_simple/testbench.vcd
$date
	Thu Sep 17 14:44:09 2020
$end
$version
	Icarus Verilog
$end
$timescale
	1s
$end
$scope module testbench $end
$var reg 1 ! clock $end
$var reg 1 " reset $end
$scope module uut0 $end
$var wire 1 ! clock $end
$var wire 1 " reset $end
$var wire 64 # next_rs3 [63:0] $end
$var wire 64 $ next_rs2 [63:0] $end
$var wire 64 % next_rs1 [63:0] $end
$var wire 32 & next_insn [31:0] $end
$var wire 32 ' next_din_index [31:0] $end
$var wire 1 ( dout_valid $end
$var wire 64 ) dout_rd [63:0] $end
$var wire 1 * din_ready $end
$var wire 64 + check_rs3 [63:0] $end
$var wire 64 , check_rs2 [63:0] $end
$var wire 64 - check_rs1 [63:0] $end
$var wire 64 . check_rd [63:0] $end
$var wire 32 / check_insn [31:0] $end
$var reg 1 0 din_insn12 $end
$var reg 1 1 din_insn13 $end
$var reg 1 2 din_insn14 $end
$var reg 1 3 din_insn25 $end
$var reg 1 4 din_insn26 $end
$var reg 1 5 din_insn27 $end
$var reg 1 6 din_insn3 $end
$var reg 1 7 din_insn30 $end
$var reg 1 8 din_insn5 $end
$var reg 64 9 din_rs1 [63:0] $end
$var reg 64 : din_rs2 [63:0] $end
$var reg 64 ; din_rs3 [63:0] $end
$var reg 1 < din_valid $end
$var reg 1 = dout_ready $end
$var integer 32 > din_index [31:0] $end
$var integer 32 ? dout_index [31:0] $end
$scope module uut $end
$var wire 1 ! clock $end
$var wire 1 @ cmixmov_active $end
$var wire 1 0 din_insn12 $end
$var wire 1 1 din_insn13 $end
$var wire 1 2 din_insn14 $end
$var wire 1 3 din_insn25 $end
$var wire 1 4 din_insn26 $end
$var wire 1 5 din_insn27 $end
$var wire 1 6 din_insn3 $end
$var wire 1 7 din_insn30 $end
$var wire 1 8 din_insn5 $end
$var wire 1 * din_ready $end
$var wire 64 A din_rs1 [63:0] $end
$var wire 64 B din_rs2 [63:0] $end
$var wire 64 C din_rs3 [63:0] $end
$var wire 1 < din_valid $end
$var wire 64 D dout_rd [63:0] $end
$var wire 1 = dout_ready $end
$var wire 1 ( dout_valid $end
$var wire 1 E logicn_active $end
$var wire 1 F minmax_active $end
$var wire 1 G minmax_choose_b $end
$var wire 1 H pack_active $end
$var wire 1 " reset $end
$var wire 1 I shadd_active $end
$var wire 1 J wuw_active $end
$var wire 1 K wuw_sub $end
$var wire 1 L wuw_wu $end
$var wire 64 M wuw_sum [63:0] $end
$var wire 64 N wuw_out [63:0] $end
$var wire 64 O wuw_dout [63:0] $end
$var wire 64 P wuw_arg [63:0] $end
$var wire 64 Q shadd_tmp [63:0] $end
$var wire 2 R shadd_shamt [1:0] $end
$var wire 64 S shadd_out [63:0] $end
$var wire 32 T pack_rs2 [31:0] $end
$var wire 32 U pack_rs1 [31:0] $end
$var wire 64 V pack_dout64 [63:0] $end
$var wire 32 W pack_dout32 [31:0] $end
$var wire 64 X pack_dout [63:0] $end
$var wire 64 Y minmax_dout [63:0] $end
$var wire 65 Z minmax_b [64:0] $end
$var wire 1 [ minmax_a_larger_b $end
$var wire 65 \ minmax_a [64:0] $end
$var wire 64 ] logicn_dout [63:0] $end
$var wire 64 ^ cmixmov_dout [63:0] $end
$upscope $end
$upscope $end
$upscope $end
$enddefinitions $end
#0
$dumpvars
bx ^
bx ]
bx \
x[
bx Z
bx Y
bx X
bx W
bx V
bx U
bx T
bx S
bx R
bx Q
bx P
bx O
bx N
bx M
xL
xK
xJ
xI
xH
xG
xF
xE
bx D
bx C
bx B
bx A
x@
b0 ?
b0 >
0=
0<
bx ;
bx :
bx 9
x8
x7
x6
x5
x4
x3
x2
x1
x0
b1010000000000000000000111011 /
b1101001001000111010111111000100 .
b1010000111010011000111110100100110000101011100011001010011010100 -
b100101010000010101010110000000111100011101100100001101011110000 ,
b1011110101100101000110100100011011011011100101110111111101010000 +
0*
bx )
0(
b0 '
b1010000000000000000000111011 &
b1010000111010011000111110100100110000101011100011001010011010100 %
b100101010000010101010110000000111100011101100100001101011110000 $
b1011110101100101000110100100011011011011100101110111111101010000 #
1"
x!
$end
#5
0!
#10
b1101001001000111010111111000100 )
b1101001001000111010111111000100 D
1J
b1101001001000111010111111000100 O
b1110110001010101110010100100101101101001001000111010111111000100 M
b11010111100001001010011010100 W
b0 ^
b0 ]
b0 X
0G
b0 S
b1101001001000111010111111000100 N
b11100011101100100001101011110000 T
b0 Y
b1110001110110010000110101111000010000101011100011001010011010100 V
b10000101011100011001010011010100 U
0@
0F
0E
0H
0[
0I
0K
1L
b100101010000010101010110000000111100011101100100001101011110000 P
b10000101011100011001010011010100 Q
1*
07
15
04
13
02
b0 R
01
00
18
16
b1011110101100101000110100100011011011011100101110111111101010000 ;
b1011110101100101000110100100011011011011100101110111111101010000 C
b100101010000010101010110000000111100011101100100001101011110000 Z
b100101010000010101010110000000111100011101100100001101011110000 :
b100101010000010101010110000000111100011101100100001101011110000 B
b11010000111010011000111110100100110000101011100011001010011010100 \
b1010000111010011000111110100100110000101011100011001010011010100 9
b1010000111010011000111110100100110000101011100011001010011010100 A
1=
0"
1!
#15
0!
#20
b1000000000000000110000000110011 &
b1101101001001101011100000100110011111100110111011000011110101110 %
b1100100100100100010101101111101000111100100111011101011111100111 $
b100101001001111111011100011011101000110101000111110101110010011 #
b1 '
1(
1<
1!
#25
0!
#30
b1111111011011111111110010100110111111111111111111010111110111110 )
b1111111011011111111110010100110111111111111111111010111110111110 D
b1111111011011111111110010100110111111111111111111010111110111110 ]
1E
0J
b0 O
b1010110111110100111000001001100 W
1G
b11001001001001000101011011111010 T
b1101101001001101011100000100110011000000001111111010111111000111 N
b1100100100100100010101101111101011011010010011010111000001001100 V
b11011010010011010111000001001100 U
b1000000000000000100000000110011 &
b111001011000101101000110001101100010010011100101010100101001000 %
b1010110000101010110101100100010100101010101000111010101110110100 $
b1010010101110101100011111001111010000100010011101111111001111101 #
b1111111011011111111110010100110111111111111111111010111110111110 .
1K
0L
1[
b111100100111011101011111100111 P
b10 '
b1000000000000000110000000110011 /
b1101101001001101011100000100110011111100110111011000011110101110 -
b1100100100100100010101101111101000111100100111011101011111100111 ,
b100101001001111111011100011011101000110101000111110101110010011 +
17
05
03
12
b1101001001101011100000100110011111100110111011000011110101110000 Q
b11 R
11
06
b100101001001111111011100011011101000110101000111110101110010011 ;
b100101001001111111011100011011101000110101000111110101110010011 C
b1100100100100100010101101111101000111100100111011101011111100111 Z
b1100100100100100010101101111101000111100100111011101011111100111 :
b1100100100100100010101101111101000111100100111011101011111100111 B
b1101101001001101011100000100110011000000001111111010111111000111 M
b1101101001001101011100000100110011111100110111011000011110101110 \
b1101101001001101011100000100110011111100110111011000011110101110 9
b1101101001001101011100000100110011111100110111011000011110101110 A
b1 >
b1 ?
1!
#35
0!
#40
b10000100010000100010101010000111000111001011101111110100000011 )
b10000100010000100010101010000111000111001011101111110100000011 D
b11010110010001011010001100011011 W
b10101100001010101101011001000101 T
b1010110000101010110101100100010101110010110001011010001100011011 V
b1110010110001011010001100011011 U
b10000100010000100010101010000111000111001011101111110100000011 ]
b10000100010000100010101010000111000111001011101111110100000011 .
b101010101000111010101110110100 P
b1010000000000000000000111011 &
b1010111010110100111100001110101100100101100110001001111101011111 %
b1111100000011111111010001010011010100100011011100110111001000011 $
b101110101100001011010001001000001111110000110010100010110001001 #
b1000000000000000100000000110011 /
b111001011000101101000110001101100010010011100101010100101001000 -
b1010110000101010110101100100010100101010101000111010101110110100 ,
b1010010101110101100011111001111010000100010011101111111001111101 +
b111001011000101101000110001101011100111110011101111110110010100 N
1G
b11 '
b10 ?
b1100101100010110100011000110110001001001110010101010010100100000 Q
b10 R
01
b1010010101110101100011111001111010000100010011101111111001111101 ;
b1010010101110101100011111001111010000100010011101111111001111101 C
b11010110000101010110101100100010100101010101000111010101110110100 Z
b1010110000101010110101100100010100101010101000111010101110110100 :
b1010110000101010110101100100010100101010101000111010101110110100 B
b111001011000101101000110001101011100111110011101111110110010100 M
1[
b111001011000101101000110001101100010010011100101010100101001000 \
b111001011000101101000110001101100010010011100101010100101001000 9
b111001011000101101000110001101100010010011100101010100101001000 A
b10 >
1!
#45
0!
#50
b11001010000001110000110110100010 )
b11001010000001110000110110100010 D
b11001010000001110000110110100010 O
b1101110010000111001111101011111 W
1J
0G
b100101100110001001111101011111 U
b1010010001101110011011100100001100100101100110001001111101011111 V
b10100100011011100110111001000011 T
b0 ]
b1111100000011111111010001010011010100100011011100110111001000011 P
0[
b1000000000000000111000000110011 &
b1001000011000011110100101011101010111000000010000001100111110000 %
b1101110111111110110010010000101110011111001010101100011111100100 $
b11110100010010101001011110111101011100010000010101011000111000 #
b11001010000001110000110110100010 .
0K
1L
0E
b11001010000001110000110110100010 N
b100 '
b1010000000000000000000111011 /
b1010111010110100111100001110101100100101100110001001111101011111 -
b1111100000011111111010001010011010100100011011100110111001000011 ,
b101110101100001011010001001000001111110000110010100010110001001 +
07
15
13
b100101100110001001111101011111 Q
b0 R
02
16
b101110101100001011010001001000001111110000110010100010110001001 ;
b101110101100001011010001001000001111110000110010100010110001001 C
b11111100000011111111010001010011010100100011011100110111001000011 Z
b1111100000011111111010001010011010100100011011100110111001000011 :
b1111100000011111111010001010011010100100011011100110111001000011 B
b1010011011010100110110011001000111001010000001110000110110100010 M
b11010111010110100111100001110101100100101100110001001111101011111 \
b1010111010110100111100001110101100100101100110001001111101011111 9
b1010111010110100111100001110101100100101100110001001111101011111 A
b11 >
b11 ?
1!
#55
0!
#60
b1000100101011000000100000000000000001100000010000 )
b1000100101011000000100000000000000001100000010000 D
b1000100101011000000100000000000000001100000010000 ]
1E
0J
b0 O
b11001001000010111101001010111010 W
b1000100101011000000100000000000000001100000010000 .
b11011101111111101100100100001011 T
b1001000011000011110100101011101000011000110111010101001000001100 N
b1101110111111110110010010000101110010000110000111101001010111010 V
b10010000110000111101001010111010 U
b100000000011011 &
b1111100010001011011101111111101101011000111000110010010011000 %
b1011001101101111111001011111110010110101100110100000000000010 $
b10100011011100100101000011101111110001001011101000101111010110 #
b1000000000000000111000000110011 /
b1001000011000011110100101011101010111000000010000001100111110000 -
b1101110111111110110010010000101110011111001010101100011111100100 ,
b11110100010010101001011110111101011100010000010101011000111000 +
1K
0L
1G
b10011111001010101100011111100100 P
b101 '
b100 ?
17
05
03
12
b1000011000011110100101011101010111000000010000001100111110000000 Q
b11 R
11
10
06
b11110100010010101001011110111101011100010000010101011000111000 ;
b11110100010010101001011110111101011100010000010101011000111000 C
b1101110111111110110010010000101110011111001010101100011111100100 Z
b1101110111111110110010010000101110011111001010101100011111100100 :
b1101110111111110110010010000101110011111001010101100011111100100 B
b1001000011000011110100101011101000011000110111010101001000001100 M
b1001000011000011110100101011101010111000000010000001100111110000 \
b1001000011000011110100101011101010111000000010000001100111110000 9
b1001000011000011110100101011101010111000000010000001100111110000 A
b100 >
1!
#65
0!
#70
b1110011111010010010011010 )
b1110011111010010010011010 D
b1000000000000100110010010011000 W
b1110011111010010010011010 O
b1101011000111000110010010011000 U
b1001011010110011010000000000001001101011000111000110010010011000 V
b10010110101100110100000000000010 T
b0 ]
1J
b1011001101101111111001011111110010110101100110100000000000010 P
b110000000000001000000110011 &
b10001001000101010011101010000111111001101100000110011001101 %
b10101101010101101000001101101001110110100110110100000011011101 $
b1100111010011101000111000011110111001110010010111101110010110000 #
b1110011111010010010011010 .
0E
0K
1L
b1110011111010010010011010 N
b110 '
b100000000011011 /
b1111100010001011011101111111101101011000111000110010010011000 -
b1011001101101111111001011111110010110101100110100000000000010 ,
b10100011011100100101000011101111110001001011101000101111010110 +
07
b110101100011100011001001001100000 Q
b10 R
01
00
08
16
b10100011011100100101000011101111110001001011101000101111010110 ;
b10100011011100100101000011101111110001001011101000101111010110 C
1[
b1011001101101111111001011111110010110101100110100000000000010 Z
b1011001101101111111001011111110010110101100110100000000000010 :
b1011001101101111111001011111110010110101100110100000000000010 B
b11010101111111011010111011111100000001110011111010010010011010 M
b1111100010001011011101111111101101011000111000110010010011000 \
b1111100010001011011101111111101101011000111000110010010011000 9
b1111100010001011011101111111101101011000111000110010010011000 A
b101 >
b101 ?
1!
#75
0!
#80
b1100010011001000101111001111010110111110010100101001110011101101 )
b1100010011001000101111001111010110111110010100101001110011101101 D
b1100010011001000101111001111010110111110010100101001110011101101 ^
1@
b0 O
b1000000110111010000110011001101 W
b1100010011001000101111001111010110111110010100101001110011101101 .
0J
b1110110100110110100000011011101 T
b10110101110100010100110110101010 N
b111011010011011010000001101110100111111001101100000110011001101 V
b111111001101100000110011001101 U
b1010000000000111000000110011 &
b101110000000101000100000101000100111111111001101010010110010110 %
b1000000111010110000101111011110000100111000101110111001110101100 $
b1110010100110000011101001011110110011111010100111000110010101110 #
b110000000000001000000110011 /
b10001001000101010011101010000111111001101100000110011001101 -
b10101101010101101000001101101001110110100110110100000011011101 ,
b1100111010011101000111000011110111001110010010111101110010110000 +
b10101101010101101000001101101001110110100110110100000011011101 P
b111 '
b110 ?
14
13
b10001001000101010011101010000111111001101100000110011001101 Q
b0 R
02
10
18
06
b1100111010011101000111000011110111001110010010111101110010110000 ;
b1100111010011101000111000011110111001110010010111101110010110000 C
b10101101010101101000001101101001110110100110110100000011011101 Z
b10101101010101101000001101101001110110100110110100000011011101 :
b10101101010101101000001101101001110110100110110100000011011101 B
b10111110011110010010101010111010110101110100010100110110101010 M
0[
b10001001000101010011101010000111111001101100000110011001101 \
b10001001000101010011101010000111111001101100000110011001101 9
b10001001000101010011101010000111111001101100000110011001101 A
b110 >
1!
#85
0!
#90
b1000000111010110000101111011110000100111000101110111001110101100 )
b1000000111010110000101111011110000100111000101110111001110101100 D
b1110011101011001010010110010110 W
b1000000111010110000101111011110000100111000101110111001110101100 Y
b0 ^
b100111000101110111001110101100 T
b1100110111111100001100101000010 N
b10011100010111011100111010110000111111111001101010010110010110 V
b111111111001101010010110010110 U
b110000000000001000000110011 &
b1101011111010001010001000010101100010101110111110010101110100001 %
b1110010111000101000011010111010011001001000111100100011101100001 $
b11111110111110100101001001100001001000100100011010001111001110 #
b1000000111010110000101111011110000100111000101110111001110101100 .
1F
0@
b1000000111010110000101111011110000100111000101110111001110101100 P
b1000 '
b1010000000000111000000110011 /
b101110000000101000100000101000100111111111001101010010110010110 -
b1000000111010110000101111011110000100111000101110111001110101100 ,
b1110010100110000011101001011110110011111010100111000110010101110 +
15
04
12
b1110000000101000100000101000100111111111001101010010110010110000 Q
b11 R
11
b1110010100110000011101001011110110011111010100111000110010101110 ;
b1110010100110000011101001011110110011111010100111000110010101110 C
b1000000111010110000101111011110000100111000101110111001110101100 Z
b1000000111010110000101111011110000100111000101110111001110101100 :
b1000000111010110000101111011110000100111000101110111001110101100 B
b1101110111011011001010000000110101100110111111100001100101000010 M
0[
b101110000000101000100000101000100111111111001101010010110010110 \
b101110000000101000100000101000100111111111001101010010110010110 9
b101110000000101000100000101000100111111111001101010010110010110 A
b111 >
b111 ?
1!
#95
0!
#100
b1101111111111011100101001010100000000001100111111010001110101111 )
b1101111111111011100101001010100000000001100111111010001110101111 D
b1000111011000010010101110100001 W
b1101111111111011100101001010100000000001100111111010001110101111 .
b1101111111111011100101001010100000000001100111111010001110101111 ^
b0 Y
b11001001000111100100011101100001 T
b11011110111111010111001100000010 N
b1100100100011110010001110110000100010101110111110010101110100001 V
b10101110111110010101110100001 U
b1010000000000101000000110011 &
b101100100000011100000010010010100001101110101010010001110110 %
b101001110110111110000110110110011010000100110001100011010100001 $
b1100000111011100110100100110011100101001100100111110101001001111 #
b110000000000001000000110011 /
b1101011111010001010001000010101100010101110111110010101110100001 -
b1110010111000101000011010111010011001001000111100100011101100001 ,
b11111110111110100101001001100001001000100100011010001111001110 +
1@
0F
b1110010111000101000011010111010011001001000111100100011101100001 P
b1001 '
b1000 ?
05
14
02
b1101011111010001010001000010101100010101110111110010101110100001 Q
b0 R
01
b11111110111110100101001001100001001000100100011010001111001110 ;
b11111110111110100101001001100001001000100100011010001111001110 C
b11110010111000101000011010111010011001001000111100100011101100001 Z
b1110010111000101000011010111010011001001000111100100011101100001 :
b1110010111000101000011010111010011001001000111100100011101100001 B
b1011110110010110010100011001111111011110111111010111001100000010 M
0[
b11101011111010001010001000010101100010101110111110010101110100001 \
b1101011111010001010001000010101100010101110111110010101110100001 9
b1101011111010001010001000010101100010101110111110010101110100001 A
b1000 >
1!
#105
0!
#110
b101001110110111110000110110110011010000100110001100011010100001 )
b101001110110111110000110110110011010000100110001100011010100001 D
b11000110101000011010010001110110 W
b101001110110111110000110110110011010000100110001100011010100001 Y
b0 ^
b11010000100110001100011010100001 T
b1110010010100110110101100010111 N
0[
b1101000010011000110001101010000110100001101110101010010001110110 V
b10100001101110101010010001110110 U
b1010000000000111000000110011 &
b110100101011110010111001000101111111011001000101101000001101100 %
b1000010011001111000111111001101110000000101101011100110010100101 $
b1110100001111011101101001010110001000011010000100000000011011 #
b101001110110111110000110110110011010000100110001100011010100001 .
1F
0@
b101001110110111110000110110110011010000100110001100011010100001 P
b1010 '
b1010000000000101000000110011 /
b101100100000011100000010010010100001101110101010010001110110 -
b101001110110111110000110110110011010000100110001100011010100001 ,
b1100000111011100110100100110011100101001100100111110101001001111 +
15
04
b10110010000001110000001001001010000110111010101001000111011000 Q
b10 R
12
b1100000111011100110100100110011100101001100100111110101001001111 ;
b1100000111011100110100100110011100101001100100111110101001001111 C
b101001110110111110000110110110011010000100110001100011010100001 Z
b101001110110111110000110110110011010000100110001100011010100001 :
b101001110110111110000110110110011010000100110001100011010100001 B
b101111011011000001100111001000101110010010100110110101100010111 M
b101100100000011100000010010010100001101110101010010001110110 \
b101100100000011100000010010010100001101110101010010001110110 9
b101100100000011100000010010010100001101110101010010001110110 A
b1001 >
b1001 ?
1!
#115
0!
#120
b1000010011001111000111111001101110000000101101011100110010100101 )
b1000010011001111000111111001101110000000101101011100110010100101 D
b11001100101001011101000001101100 W
b1000010011001111000111111001101110000000101101011100110010100101 .
b1000010011001111000111111001101110000000101101011100110010100101 Y
b10000000101101011100110010100101 T
b1111011110110001001110100010001 N
b1000000010110101110011001010010111111011001000101101000001101100 V
b11111011001000101101000001101100 U
b1001000000000000100000000111011 &
b101011011101000001100110101001101000000110011010001100101010010 %
b1001111100000010001111001000000111001010110111000110100111001000 $
b1011101101001100000011010111101001100110100010010101000101101011 #
b1010000000000111000000110011 /
b110100101011110010111001000101111111011001000101101000001101100 -
b1000010011001111000111111001101110000000101101011100110010100101 ,
b1110100001111011101101001010110001000011010000100000000011011 +
b1000010011001111000111111001101110000000101101011100110010100101 P
b1011 '
b1010 ?
b100101011110010111001000101111111011001000101101000001101100000 Q
b11 R
11
b1110100001111011101101001010110001000011010000100000000011011 ;
b1110100001111011101101001010110001000011010000100000000011011 C
b1000010011001111000111111001101110000000101101011100110010100101 Z
b1000010011001111000111111001101110000000101101011100110010100101 :
b1000010011001111000111111001101110000000101101011100110010100101 B
b1110111000101101011111000010011101111011110110001001110100010001 M
0[
b110100101011110010111001000101111111011001000101101000001101100 \
b110100101011110010111001000101111111011001000101101000001101100 9
b110100101011110010111001000101111111011001000101101000001101100 A
b1010 >
1!
#125
0!
#130
b1111111111111111111111111111111111001010110111000100000011001101 )
b1111111111111111111111111111111111001010110111000100000011001101 D
b11001010110111000100000011001101 W
b1111111111111111111111111111111111001010110111000100000011001101 X
b0 Y
bx1100101011011100 T
b101011011101000001100110101001001110101111100001010111110001010 N
bx1100101011011100xxxxxxxxxxxxxxxx0100000011001101 V
bx0100000011001101 U
b1001000000000000100000000111011 &
b101011011101000001100110101001101000000110011010001100101010010 %
b1001111100000010001111001000000111001010110111000110100111001000 $
b1011101101001100000011010111101001100110100010010101000101101011 #
b1111111111111111111111111111111111001010110111000100000011001101 .
1K
0L
0F
1H
1[
1G
b11001010110111000110100111001000 P
0(
b1011 '
b1001000000000000100000000111011 /
b101011011101000001100110101001101000000110011010001100101010010 -
b1001111100000010001111001000000111001010110111000110100111001000 ,
b1011101101001100000011010111101001100110100010010101000101101011 +
17
03
b100000011001101000110010101001000 Q
b10 R
01
00
16
b1011101101001100000011010111101001100110100010010101000101101011 ;
b1011101101001100000011010111101001100110100010010101000101101011 C
b11001111100000010001111001000000111001010110111000110100111001000 Z
b1001111100000010001111001000000111001010110111000110100111001000 :
b1001111100000010001111001000000111001010110111000110100111001000 B
b101011011101000001100110101001001110101111100001010111110001010 M
b101011011101000001100110101001101000000110011010001100101010010 \
b101011011101000001100110101001101000000110011010001100101010010 9
b101011011101000001100110101001101000000110011010001100101010010 A
0<
b1011 >
b1011 ?
1!
#135
0!
#140
1!
#145
0!
#150
b1010000000000000000000111011 &
b1100001010011111101100100110101110101110100010111100100001000010 %
b10011111111111100100111110001101100101111100001011110101100010 $
b11100111000100010011011100110010111111110011110010101110110010 #
b1100 '
1(
1<
1!
#155
0!
#160
b10100011111001000010110100100 O
1J
b10100011111001000010110100100 )
b10100011111001000010110100100 D
b10111101011000101100100001000010 W
0G
b10100011111001000010110100100 .
b10101110100010111100100001000010 U
b110010111110000101111010110001010101110100010111100100001000010 V
b1100101111100001011110101100010 T
b0 X
b10011111111111100100111110001101100101111100001011110101100010 P
0[
b1001010000000000000000000111011 &
b1110000001111100110011101101010001001101011010000011001011100111 %
b10110110101010000110001101110110111000100000000111111100100101 $
b101101111110100000101100111011111111110011010011100011110101010 #
b1010000000000000000000111011 /
b1100001010011111101100100110101110101110100010111100100001000010 -
b10011111111111100100111110001101100101111100001011110101100010 ,
b11100111000100010011011100110010111111110011110010101110110010 +
0K
1L
0H
b10100011111001000010110100100 N
b1101 '
b1100 ?
07
13
b10101110100010111100100001000010 Q
b0 R
02
b11100111000100010011011100110010111111110011110010101110110010 ;
b11100111000100010011011100110010111111110011110010101110110010 C
b10011111111111100100111110001101100101111100001011110101100010 Z
b10011111111111100100111110001101100101111100001011110101100010 :
b10011111111111100100111110001101100101111100001011110101100010 B
b1110101010011111010001100100111100010100011111001000010110100100 M
b11100001010011111101100100110101110101110100010111100100001000010 \
b1100001010011111101100100110101110101110100010111100100001000010 9
b1100001010011111101100100110101110101110100010111100100001000010 A
b1100 >
1!
#165
0!
#170
b10010100111001111011001111000010 )
b10010100111001111011001111000010 D
b10010100111001111011001111000010 O
b10111000100000000100110101101000 W
bx1011100010000000 T
b1001101011010000011001011100111 Q
b10010100111001111011001111000010 N
bx1011100010000000xxxxxxxxxxxxxxxx0100110101101000 V
bx0100110101101000 U
b1001010000000000000000000111011 &
b1110000001111100110011101101010001001101011010000011001011100111 %
b10110110101010000110001101110110111000100000000111111100100101 $
b101101111110100000101100111011111111110011010011100011110101010 #
b10010100111001111011001111000010 .
1K
b10110110101010000110001101110110111000100000000111111100100101 P
0*
0(
b1101 '
b1001010000000000000000000111011 /
b1110000001111100110011101101010001001101011010000011001011100111 -
b10110110101010000110001101110110111000100000000111111100100101 ,
b101101111110100000101100111011111111110011010011100011110101010 +
17
b101101111110100000101100111011111111110011010011100011110101010 ;
b101101111110100000101100111011111111110011010011100011110101010 C
b10110110101010000110001101110110111000100000000111111100100101 Z
b10110110101010000110001101110110111000100000000111111100100101 :
b10110110101010000110001101110110111000100000000111111100100101 B
b1011001011010010101101011111011010010100111001111011001111000010 M
b11110000001111100110011101101010001001101011010000011001011100111 \
b1110000001111100110011101101010001001101011010000011001011100111 9
b1110000001111100110011101101010001001101011010000011001011100111 A
0=
0<
b1101 >
b1101 ?
1!
#175
0!
#180
b1010000000000000000000111011 &
b101101110010010010110010010001000000110011101000011111001011001 %
b1011011001010100100011100100011011010100000101111110110010001000 $
b1100101011001111100010010101111001000111011001101000000110101 #
b1110 '
1*
1(
1=
1<
1!
#185
0!
#190
b11011010100011000010101011100001 )
b11011010100011000010101011100001 D
b11101100100010000011111001011001 W
1G
b11011010100011000010101011100001 O
b110011101000011111001011001 U
b1101010000010111111011001000100000000110011101000011111001011001 V
b11010100000101111110110010001000 T
1[
b110011101000011111001011001 Q
b11011010100011000010101011100001 N
b1001000000000000000000000111011 &
b1000010100101010100010000010011101010001101000000010010000110 %
b11111000111010110010110101010010001101010111110110011101111100 $
b101011110101010001000110010010001101010000110111111001010100011 #
b11011010100011000010101011100001 .
0K
b1011011001010100100011100100011011010100000101111110110010001000 P
b1111 '
b1010000000000000000000111011 /
b101101110010010010110010010001000000110011101000011111001011001 -
b1011011001010100100011100100011011010100000101111110110010001000 ,
b1100101011001111100010010101111001000111011001101000000110101 +
07
b1100101011001111100010010101111001000111011001101000000110101 ;
b1100101011001111100010010101111001000111011001101000000110101 C
b11011011001010100100011100100011011010100000101111110110010001000 Z
b1011011001010100100011100100011011010100000101111110110010001000 :
b1011011001010100100011100100011011010100000101111110110010001000 B
b1000111100110111001110110100011011010100011000010101011100001 M
b101101110010010010110010010001000000110011101000011111001011001 \
b101101110010010010110010010001000000110011101000011111001011001 9
b101101110010010010110010010001000000110011101000011111001011001 A
b1110 >
b1110 ?
1!
#195
0!
#200
b1000010100101010100010000010001011100110101001001110100001010 )
b1000010100101010100010000010001011100110101001001110100001010 D
0G
b1000010100101010100010000010001011100110101001001110100001010 O
b10001101010111111110101000110100 W
b1000010100101010100010000010001011100110101001001110100001010 .
0[
bx1000110101011111 T
b11101010001101000000010010000110 Q
b1000010100101010100010000010001011100110101001001110100001010 N
bx1000110101011111xxxxxxxxxxxxxxxx1110101000110100 V
bx1110101000110100 U
b1010000000000100000000110011 &
b1001101100111101110001010001101001010000010011000000111001110101 %
b1110000111011010000100000011010011011000010001001111101010011010 $
b1010010111100100101110110011000101100010110100101100110001110000 #
b1001000000000000000000000111011 /
b1000010100101010100010000010011101010001101000000010010000110 -
b11111000111010110010110101010010001101010111110110011101111100 ,
b101011110101010001000110010010001101010000110111111001010100011 +
1K
0L
b10001101010111110110011101111100 P
b10000 '
b1111 ?
17
03
b101011110101010001000110010010001101010000110111111001010100011 ;
b101011110101010001000110010010001101010000110111111001010100011 C
b11111000111010110010110101010010001101010111110110011101111100 Z
b11111000111010110010110101010010001101010111110110011101111100 :
b11111000111010110010110101010010001101010111110110011101111100 B
b1000010100101010100010000010001011100110101001001110100001010 M
b1000010100101010100010000010011101010001101000000010010000110 \
b1000010100101010100010000010011101010001101000000010010000110 9
b1000010100101010100010000010011101010001101000000010010000110 A
b1111 >
1!
#205
0!
#210
b1001101100111101110001010001101001010000010011000000111001110101 )
b1001101100111101110001010001101001010000010011000000111001110101 D
b1001101100111101110001010001101001010000010011000000111001110101 Y
1F
0J
b11111010100110100000111001110101 W
b1010000010011000000111001110101 U
b1101100001000100111110101001101001010000010011000000111001110101 V
b11011000010001001111101010011010 T
b1110000111011010000100000011010011011000010001001111101010011010 P
b0 O
b1000000000000000110000000110011 &
b11110100101000111101110101110001011011101011111011000100011101 %
b1110000000100101111001011101111111001111000001011011100110010 $
b111111010110100101101001000101111101100111111101101001110011 #
b1001101100111101110001010001101001010000010011000000111001110101 .
0K
1L
b101000100100010000100100001111 N
b10001 '
b1010000000000100000000110011 /
b1001101100111101110001010001101001010000010011000000111001110101 -
b1110000111011010000100000011010011011000010001001111101010011010 ,
b1010010111100100101110110011000101100010110100101100110001110000 +
07
13
b110110011110111000101000110100101000001001100000011100111010100 Q
b10 R
12
06
b1010010111100100101110110011000101100010110100101100110001110000 ;
b1010010111100100101110110011000101100010110100101100110001110000 C
b11110000111011010000100000011010011011000010001001111101010011010 Z
b1110000111011010000100000011010011011000010001001111101010011010 :
b1110000111011010000100000011010011011000010001001111101010011010 B
b111110100010111110101010100111100101000100100010000100100001111 M
0[
b11001101100111101110001010001101001010000010011000000111001110101 \
b1001101100111101110001010001101001010000010011000000111001110101 9
b1001101100111101110001010001101001010000010011000000111001110101 A
b10000 >
b10000 ?
1!
#215
0!
#220
b1111111111111011111101110101110001011111101111111111100111011101 )
b1111111111111011111101110101110001011111101111111111100111011101 D
b10111100101110111111011101011100 W
b1111111111111011111101110101110001011111101111111111100111011101 .
b1111111111111011111101110101110001011111101111111111100111011101 ]
b11100000001001011110010111011 T
b11110100101000111101110101101101100001110011101111100111101011 N
b0 Y
b1110000000100101111001011101100111101001010001111011101011100 V
b111101001010001111011101011100 U
b111001110011110110011001100101111101010111110001100000011001000 %
b1010111011010110100011101011100010011111001101111001011000111000 $
b1101001111100100101110001100000011011011011011111100110101111110 #
b1000000000000000110000000110011 /
b11110100101000111101110101110001011011101011111011000100011101 -
b1110000000100101111001011101111111001111000001011011100110010 ,
b111111010110100101101001000101111101100111111101101001110011 +
1K
1E
0L
0F
b11111001111000001011011100110010 P
1G
b10010 '
b10001 ?
17
05
03
b1110100101000111101110101110001011011101011111011000100011101000 Q
b11 R
11
b111111010110100101101001000101111101100111111101101001110011 ;
b111111010110100101101001000101111101100111111101101001110011 C
1[
b1110000000100101111001011101111111001111000001011011100110010 Z
b1110000000100101111001011101111111001111000001011011100110010 :
b1110000000100101111001011101111111001111000001011011100110010 B
b11110100101000111101110101101101100001110011101111100111101011 M
b11110100101000111101110101110001011011101011111011000100011101 \
b11110100101000111101110101110001011011101011111011000100011101 9
b11110100101000111101110101110001011011101011111011000100011101 A
b10001 >
1!
#225
0!
